﻿[
{
"day":"1",
"start":"拉萨",
"end":"林芝市",
"distance":"400km",
"describe":"离开圣城拉萨，布达拉宫渐行渐远，沿途多处历史遗迹，可停车参观游览，翻越米拉山，沿途欣赏秀美的尼洋河风光。\n\n途经巴河镇，可前往红教圣湖巴松错游览，沿途多个路段限速，注意控制抵达限速点的时间。",
"rankHard":"6",
"hour":"行车约8-10小时"
},
{
"day":"2",
"start":"林芝市",
"end":"波密县",
"distance":"235km",
"describe":"沿途景色应接不暇，“世界柏树王”巴结乡巨柏林，尼洋河，色季拉山，南迦巴瓦峰，雅鲁藏布大峡谷，川藏线上最后的天险通麦。\n\n出八一镇尼洋河相伴而行，4公里的巴结乡有号称“世界柏树王”巨柏林，可前往游览。翻越冰雪覆盖，云雾缭绕的色季拉山，该山以春夏时的杜鹃花海闻名，同时也是观看南迦巴瓦峰最好的地方之一。\n\n下山后，穿越雪山、林海环绕的鲁朗到排龙。排龙门巴民族乡是通往雅鲁藏布大峡谷的重要入口，从该乡沿帕龙藏布南行，抵大峡谷拐弯弧顶处一段是最具探险旅游特色的路线。\n\n排龙之通麦15公里路段，在雨季时，山洪和泥石流常引发山体滑坡而使公路中断，现在此路段新建大桥和隧道都已经通车，路况好转，更加安全。\n波密有通往墨脱县的公路，感兴趣可前往游览，需要边防证。",
"rankHard":"10",
"hour":"行车约5-7小时"
},
{
"day":"3",
"start":"波密县",
"end":"然乌镇",
"distance":"130km",
"describe":"沿途景色绝美，安目错时而明丽秀艳、时而烟雨蒙蒙，帕隆藏布江奔腾欢快，远处的雪顶冰峰在茂密的森林中若隐若现，崖壁上的溪流直泻而下。\n\n里程碑K3911处有前往米堆冰川的岔路，途中可能会有多处涉水区，注意安全，然乌镇位于安目错湖畔，周围有两个冰川，米堆冰川在波密来路途中，来古冰川在然乌镇东南方向，米堆冰川被地理学家们称作“世界级冰川奇观”，它有着近800米落差的冰瀑布，此外，它还是一条会“突然跃动”的冰川，这在全世界的冰川中都是非常罕见的，可选择前往游览。",
"rankHard":"3",
"hour":"行车约4-6小时"
},
{
"day":"4",
"start":"然乌镇",
"end":"左贡县",
"distance":"290km",
"describe":"出然乌，翻越安久拉山后到八宿，八宿藏语意为“勇士山脚下的村庄”，途中峭壁林立，蔚为壮观。\n\n过八宿沿怒江前行，经著名的一八零八拐翻越横断山最大的天险-业拉山到邦达，沿途雪山、原始森林和田园风光交相辉映，景色出奇的美丽，海拔在4400米的邦达是川藏南线和北线的交会处，北通昌都，西至林芝、拉萨，是一个重要的交通枢纽，藏东唯一的机场就建在开阔的邦达草原，是世界上海拔最高的民用机场。\n\n告别草原，一路下行到左贡，全程多个限速段，注意控制到达每个限速点时间。",
"rankHard":"8",
"hour":"行车约7-9小时"
},
{
"day":"5",
"start":"左贡县",
"end":"飞来寺",
"distance":"366KM",
"describe":"行程较长，翻越多个山口。\n\n出左贡后征服征服海拔5000多米的东达山，山口气候恶劣，温低风大，易出现高反症状，做好预防措施。\n\n翻越曲曲折折的觉巴山后来到川藏南线和滇藏线交汇的芒康县后，正式踏上滇藏线的道路向云南进发。\n\n途中有限速段，注意控制到达限速点的时间。\n\n沿途风景壮丽，发源于青藏高原唐古拉山脉的金沙江、澜沧江和怒江，在此区域近几百公里的范围内呈平行竟流之势，构成“两壁夹三江”的壮阔风景，境内层峦叠嶂，多峡谷，地形复杂，甚为壮观。\n\n飞来寺是观赏梅里雪山好地方，梅里雪山又称雪山太子，位于云南省德钦县东北约10km的横断山脉中段怒江与澜沧江之间，平均海拔在6000m以上的有13座山峰，称为“太子十三峰”，主峰卡瓦格博峰海拔高达6740m，是云南的第一高峰，日出、日落时分，欣赏日照金山的壮丽美景。",
"rankHard":"8",
"hour":"行车约6-8小时"
},
{
"day":"6",
"start":"飞来寺",
"end":"香格里拉市",
"distance":"175km",
"describe":"行程不长，全程沿G214前行，路况较好，轻松前行。\n\n途经纳帕海景区，风景绚丽。香格里拉旅游资源丰富，游览香格里拉古城，参观噶丹•松赞林寺，前往普达措国家公园游览。",
"rankHard":"6",
"hour":"行车3-5小时"
},
{
"day":"7",
"start":"香格里拉市",
"end":"丽江市",
"distance":"173KM",
"describe":"行程不长，沿G214前行至雄古路口转道S308前往丽江。\n途经过小中甸，风景绚丽，好好欣赏。过虎跳峡镇后不久便是虎跳峡景区，可前往参观游览。\n\n丽江是旅行者的天堂，素有“艳遇之都”之称，古城中酒吧林立，热闹非凡，游览完丽江古城、束河古城，约上朋友，酒吧街尽情歌舞。丽江古城的腊排骨非常美味实惠，推荐品尝。",
"rankHard":"5",
"hour":"行车约2-4小时"
},
{
"day":"8",
"start":"丽江市",
"end":"大理古城",
"distance":"165KM",
"describe":"行程短，出丽江后沿大丽线前行，路况好，一路轻松前行。\n\n大理是历史名城，景点众多，“风花雪月”四景中以苍山、洱海最为著名，爬上苍山，俯览大理的美景，或环游洱海。夜晚在古城点一杯啤酒，聆听流浪歌手演唱动情的歌曲。",
"rankHard":"4",
"hour":"行车约2-4小时"
},
{
"day":"9",
"start":"大理古城",
"end":"昆明市",
"distance":"350KM",
"describe":"行程较长，大理至昆明全程可走高速，路况好，轻松前行。\n\n途经楚雄市，在夏季楚雄会举办盛大的火把节，不容错过。\n\n昆明素有“春城”的美称，四季如春，气候宜人，周围景点众多，可选择前往参观游览。",
"rankHard":"4",
"hour":"行车约4-6小时"
}
]