﻿[
{
"day":"1",
"start":"拉萨",
"end":"羊八井镇",
"distance":"85KM",
"describe":"行程适中，全程缓上坡路段为主，较为幸苦，早出发，沿途城镇多，午餐补给方便。\n\n青藏线（G109）是所有进藏公路中最繁忙的一条，来往车辆多，尤其是大货车，注意安全。\n\n一路高山峡谷、乡间田园伴行。\n羊八井以温泉最出名，泡着温泉，欣赏浩瀚银河，无比惬意。",
"rankHard":"8",
"hour":"约6-8小时"
},
{
"day":"2",
"start":"羊八井镇",
"end":"当雄县",
"distance":"75KM",
"describe":"行程适中，以上坡+缓下路段为主，翻越两个山口，有一定强度，早出发。午餐自备干粮。\n\n当雄有公路通往圣湖纳木错，可乘车或骑行前往游览（当雄距离纳木错约70km，需翻越那根拉山口，海拔落差大，骑行难度大）。",
"rankHard":"8",
"hour":"约6-8小时"
},
{
"day":"3",
"start":"当雄县",
"end":"古露镇",
"distance":"74KM",
"describe":"行程适中，起伏缓上路段为主，翻越芒隆拉山口，强度较大，沿途乡镇多，午餐补给方便。\n\n途经藏北八塔，可停车参观。",
"rankHard":"8",
"hour":"约6-8小时"
},
{
"day":"4",
"start":"古露镇",
"end":"那曲县",
"distance":"94KM",
"describe":"行程较长，以平缓起伏路段为主，翻越两个无名垭口，有一定强度，早出发。途经乡镇，午餐补给方便。\n\n那曲县是那曲地区首府，物资齐备，藏族风情浓厚，藏族风情浓厚，如在8月份来到那曲，盛大的赛马节不容错过。",
"rankHard":"7",
"hour":"约7-9小时"
},
{
"day":"5",
"start":"那曲县",
"end":"夏曲镇",
"distance":"101KM",
"describe":"沿G317继续前行，行程较长，翻过两个垭口，以起伏缓上+起伏缓下路段为主，强度大，早出发，沿途补给方便，可在孔玛乡午餐。\n\n如无法一天完成，可在孔玛乡停宿。",
"rankHard":"9",
"hour":"约8-10小时"
},
{
"day":"6",
"start":"夏曲镇",
"end":"索县",
"distance":"130KM",
"describe":"行程长，长上坡路段翻越岗拉山，起伏缓下到索县，部分路况较差，强度大，早出发，沿途村乡较多，午餐补给方便。\n\n如无法一天完成，根据情况在沿途乡村停宿。",
"rankHard":"9",
"hour":"约8-10小时"
},
{
"day":"7",
"start":"索县",
"end":"雅安镇",
"distance":"75KM",
"describe":"行程适中，以长上坡+长下坡路段为主，部分路段路况较差，强度大。可在巴青县午餐。\n\n体力好，可合并下一天行程，到荣布镇，难度大，慎重选择。",
"rankHard":"8",
"hour":"约5-7小时"
},
{
"day":"8",
"start":"雅安镇",
"end":"荣布镇",
"distance":"47KM",
"describe":"行程短，长上坡+长下坡柏油路段，午餐自备干粮。\n\n在牛羊满山的高原牧区中穿行，景色宜人。",
"rankHard":"8",
"hour":"约5-7小时"
},
{
"day":"9",
"start":"荣布镇",
"end":"尺牍镇",
"distance":"76KM",
"describe":"行程适中，以长上坡+长下坡路段为主，全程碎石土路，翻越斜拉山，强度较大，备足干粮、水，早出发。\n\n继续高原牧区中穿行，风吹草低现牛羊。\n\n体力好可合并下一天行程，赶到丁青县，合并难度大，慎重选择。",
"rankHard":"7",
"hour":"约8-10小时"
},
{
"day":"10",
"start":"尺牍镇",
"end":"丁青县",
"distance":"64KM",
"describe":"行程适中，以长上坡+长下坡路段为主，强度适中。午餐自备干粮，可在色扎乡补给。\n\n沿途经过多所寺庙，远处的金顶在阳光下熠熠生辉，丁青是冬虫夏草集散地，感兴趣可购买。",
"rankHard":"7",
"hour":"约6-8小时"
},
{
"day":"11",
"start":"丁青县",
"end":"觉恩乡",
"distance":"43KM",
"describe":"行程短，全程以平缓+起伏的柏油路段，午餐自备干粮。\n\n计划去孜珠寺游览，可在孜珠寺路口改道前往，18km的盘山爬坡路段，强度很大，权衡体力。\n\n觉恩乡住宿条件不好，可早出发合并下一天行程赶到类乌齐县。",
"rankHard":"5",
"hour":"约4-6小时"
},
{
"day":"12",
"start":"觉恩乡",
"end":"类乌齐县",
"distance":"101KM",
"describe":"行程较长，柏油路，翻越杰嘎尔拉山，上坡路段长，骑行强度大，早出发。沿途补给少，备足干粮、水。\n\n一路在高原草甸中穿行，景色宜人。",
"rankHard":"10",
"hour":"约9-11小时"
},
{
"day":"13",
"start":"类乌齐县",
"end":"昌都",
"distance":"106KM",
"describe":"行程较长，翻越朱古拉山，以长上坡+长下坡+起伏路段为主，难度大，早出发，午餐自备干粮，沿途村镇较多，补给方便。\n由于朱古拉山在修隧道，翻山途中会有几十公里路况差。\n\n朱格村附近的朱古寺是强巴林寺的下属寺院，可前往游览。\n\n昌都是可游览强巴林寺，昌都是G317和G214交汇处，可由此沿G214到邦达，转道川南线。",
"rankHard":"9",
"hour":"约9-11小时"
},
{
"day":"14",
"start":"昌都",
"end":"妥坝乡",
"distance":"114KM",
"describe":"行程较长，全程以起伏缓上路段为主，海拔上升近800m，部分路段起伏坡度大，需爬坡，难度很大，早出发，可在日通乡午餐补给。\n\n全程在河谷中穿行，过嘎日村的峡谷路段，山势陡峭，注意安全。\n\n如无法一天完成，可在沿途乡村寻找住宿、或扎营。",
"rankHard":"10",
"hour":"约7-9小时"
},
{
"day":"15",
"start":"妥坝乡",
"end":"江达县",
"distance":"117KM",
"describe":"行程较长，翻越两个山口，以长上坡+长下坡路段为主，难度大，早出发，可在青泥洞乡午餐，沿途补给方便。\n\n宗拉夷山偶有抢劫发生，结伴而行，注意安全。\n\n如无法完成，可在玉龙镇或青泥洞乡停宿。\n",
"rankHard":"10",
"hour":"约8-10小时"
},
{
"day":"16",
"start":"江达县",
"end":"德格县",
"distance":"111KM",
"describe":"行程较长，以长上坡+长下坡路段为主，翻越矮拉山，上坡路段长，难度大，早出发，午餐自备干粮。\n由于矮拉山在修隧道，翻山途中会有几十公里路况较差。\n\n过金沙江大桥后，离开西藏，进入四川境内。\n\n德格是历史文化重镇，德格印经院在藏传佛教中更是地位非凡。\n\n如无法一天完成可在岗托镇停宿。",
"rankHard":"10",
"hour":"约9-11小时"
},
{
"day":"17",
"start":"德格县",
"end":"马尼干戈乡",
"distance":"92KM",
"describe":"行程较长，以起伏+长上坡+长下坡路段为主，强度大，早出发。午餐自备干粮。\n\n雀儿山隧道已经通车，隧道全长7km，较以前轻松很多。\n雀儿山垭口是四川境内海拔最高的公路垭口，如想翻越雀儿山垭口，则需沿老路多走15km上坡+15km下坡路，且路况差，体力好的勇士们可以挑战。\n\n虽然道路曲折艰难，但沿途风景蔚为壮观，雪山、湖泊应接不暇，新路海风景极为秀丽壮观。",
"rankHard":"10",
"hour":"约12-14小时"
},
{
"day":"18",
"start":"马尼干戈乡",
"end":"甘孜县",
"distance":"92KM",
"describe":"行程较长，以起伏路段为主，部分爬坡，难度较大，早出发。沿途乡镇较多，午餐补给方便。\n\n途中有“霍尔十三寺”中的两个，可停车参观游览。\n甘孜县宗教氛围浓厚，寺庙众多，可前往甘孜寺、汉人寺参观游览，感受当地藏族文化、生活。",
"rankHard":"8",
"hour":"约7-9小时"
},
{
"day":"19",
"start":"甘孜县",
"end":"炉霍县",
"distance":"97KM",
"describe":"行程较长，离开S317,回到G303上，以起伏+上、下坡路段为主，翻越洛戈梁子，难度较大，早出发，沿途乡镇较多，午餐补给方便。\n\n途经卡萨错，风景美丽。\n\n到达炉霍后，可游览寿灵寺。强烈建议用一两天时间，由炉霍乘车前往色达喇荣五明佛学院游览",
"rankHard":"8",
"hour":"约6-8小时"
},
{
"day":"20",
"start":"炉霍县",
"end":"道孚县",
"distance":"71KM",
"describe":"行程适中，全程起伏缓下路段，难度小，沿途乡镇多，午餐补给方便。\n\n道孚县的灵雀寺可前往游览。",
"rankHard":"4",
"hour":"约6-8小时"
},
{
"day":"21",
"start":"道孚县",
"end":"八美镇",
"distance":"79KM",
"describe":"行程适中，长上坡+缓下路段为主，翻越松林口，难度较大，早出发，沿途补给少，备足干粮和水。\n\n过松林口后在龙灯草原中穿行，风景极佳，珠姆措和然姑寺在龙灯草原上，可前往参观游览。\n\n可在八美镇沿S215前往新都桥镇，转道川藏南线。\n",
"rankHard":"8",
"hour":"约6-8小时"
},
{
"day":"22",
"start":"八美镇",
"end":"丹巴县",
"distance":"84KM",
"describe":"行程较长，以上坡+长下坡路段为主，翻越疙瘩梁子，难度适中，早出发，可在座佛山庄午餐。\n\n惠远寺在上山途中，可由惠远寺路口前往参观游览。\n\n沿途风景秀美，二道班有观景台，可观赏亚拉雪山。",
"rankHard":"6",
"hour":"约8-10小时"
},
{
"day":"23",
"start":"丹巴县",
"end":"小金县",
"distance":"58KM",
"describe":"行程不长，全程逆流缓上路段，有一定难度，午餐自备干粮。\n\n途经岳扎乡墨尔多庙，可停车参观。小金县的红军懋功同乐会遗址可前往参观。\n\n体力好可合并下一天行程，难度较大，慎重选择。\n",
"rankHard":"6",
"hour":"约4-6小时"
},
{
"day":"24",
"start":"小金县",
"end":"日隆镇",
"distance":"54KM",
"describe":"行程不长，以上坡路段为主，有一定强度，沿途城镇较多，午餐补给方便。\n\n一路逆流而上，景点众多，可停车参观游览。\n\n经过四姑娘山（南门）景区，可由此前往四姑娘山游览。",
"rankHard":"6",
"hour":"约4-6小时"
},
{
"day":"25",
"start":"日隆镇",
"end":"卧龙镇",
"distance":"97KM",
"describe":"行程较长，翻越巴郎山，长下坡路段到卧龙镇，海拔落差大，难度不大，早出发，午餐自备干粮。\n巴朗山隧道已通车，隧道全长近8km，走隧道会轻松很多。隧道口有老路通向巴朗山垭口，体力好可挑战。\n\n巴朗山海拔高，注意防寒保暖，预防高反。",
"rankHard":"10",
"hour":"约6-8小时"
},
{
"day":"26",
"start":"卧龙镇",
"end":"成都",
"distance":"150KM",
"describe":"行程长，全程下坡+平缓路段，骑行时间长，较为辛苦，沿途城镇多，午餐补给方便。\n\n卧龙到映秀段，沿途飞石区，注意安全。\n\n映秀是08年汶川大地震重灾区，可到地震遗址祭拜凭吊。\n\n游览世界文化遗产都江堰后在川西田园陪伴下抵达“天府之都”成都，品尝成都的各色美食。",
"rankHard":"9",
"hour":"约4-6小时"
}
]