﻿[
{
"day":"1",
"start":"拉萨",
"end":"曲水县",
"distance":"60KM",
"describe":"行程不长，全程平缓路段，难度不大，沿途村镇多，午餐补给方便。\n\n出拉萨后一路沿拉萨河前行。\n赶路或者已经去过羊卓雍错可以直接走国道318分两天前往日喀则，可减少一天行程！",
"rankHard":"4",
"hour":"约3-5小时"
},
{
"day":"2",
"start":"曲水县",
"end":"浪卡子县",
"distance":"93KM",
"describe":"行程较长，达嘎乡过雅江大桥后转到S307，长上坡翻越冈巴拉山，难度较大，午餐自备干粮，途中有补给点。\n\n过垭口后，圣湖羊卓雍错一路陪伴，风景灵秀，洗净风尘。\n\n浪卡子县位于空母错湖畔，县城并不大。",
"rankHard":"7",
"hour":"约6-8小时"
},
{
"day":"3",
"start":"浪卡子县",
"end":"江孜县",
"distance":"103KM",
"describe":"行程较长，上坡路段长，翻越两个山口，难度较大，早出发，午餐自备干粮。\n\n沿途经过卡若拉冰川、乃钦康桑雪山、满拉水库，景色壮丽。\n\n江孜景点众多，可前往白居寺、江孜古堡参观游览",
"rankHard":"9",
"hour":"约8-10小时"
},
{
"day":"4",
"start":"江孜县",
"end":"日喀则",
"distance":"93KM",
"describe":"行程较长，沿S204前行，一路地势平坦，难度不大，可在白朗县午餐。\n\n沿途田园山水风光绚丽秀美，油菜花海，唯美至极。\n\n日喀则是西藏第二大市，物资丰富，住宿条件优越，扎什伦布寺气势恢宏，值得一游。",
"rankHard":"4",
"hour":"约4-6小时"
},
{
"day":"5",
"start":"日喀则",
"end":"拉孜县",
"distance":"150KM",
"describe":"行程长，沿G318前行，翻越措拉山口，全程以平缓起伏路面为主，较为幸苦，早出发，可在柳乡午餐，沿途乡镇较多补给方便。\n\n途经318国道5000公里纪念碑，萨迦县路口距萨迦县约20km，可由路口前往萨迦县游览萨迦寺。\n\n拉孜以藏刀最为出名，不妨选购一把邮寄回家作为纪念（刀具不便携带）。",
"rankHard":"9",
"hour":"约8-10小时"
},
{
"day":"6",
"start":"拉孜县",
"end":"白坝乡",
"distance":"84KM",
"describe":"行程较长，以长上坡+长下坡路段为主，翻越嘉措拉山，难度较大，早出发，午餐自备干粮。\n\n在白坝乡购买珠峰门票，白坝乡有道路通往定日县城。",
"rankHard":"8",
"hour":"约5-7小时"
},
{
"day": "7",
"start": "白坝乡",
"end": "岗嘎镇",
"distance": "64km",
"describe": "行程适中，以起伏缓上路段为主，途中路过珠峰线岔路，去珠峰行程可参考珠峰线行程。\n 途经扎果乡和巴恩村可午餐补给\n 岗嘎镇是老定日县城食宿方便",
"rankHard": "6",
"hour": "约4-6时"
},
{
"day": "8",
"start": "岗嘎镇",
"end": "监测站",
"distance": "138km",
"describe": "行程长，起伏缓上路段为主，难度大早出发，准备些干粮\n 可在门布乡午餐补给\n 今天会离开318沿县道前往吉隆县，樟木口岸在2015年的地震中受损严重，已封闭，寺龙村有检查站。\n 今天会进入希夏邦马保护区的腹地，希夏邦马峰和佩枯措风景壮丽，远处能看见众多高原精灵\n 体力不支或遇到逆风，可选择在门布乡或寺龙村停宿分天\n 检测站只有一处住宿，在门布乡补充干粮",
"rankHard": "9",
"hour": "约8-10小时"
},
{
"day": "9",
"start": "监测站",
"end": "吉隆县",
"distance": "67km",
"describe": "行程适中，以起伏上坡+下坡路段为主，翻越孔唐拉姆山垭口，难度较大\n 途中第一个路口向左可以沿老路翻山前往吉隆，但是道路年久失修且爬坡难度大，建议按照路牌指引走新路翻山。\n 今天的行程风景绝美，左边是希夏邦马峰右边是佩枯措。\n 吉隆县食宿方便",
"rankHard": "7",
"hour": "约5-7小时"
},
{
"day": "10",
"start": "吉隆县",
"end": "吉隆镇",
"distance": "70km",
"describe": "行程适中，以下坡路段为主，海拔下降1000多米，较为轻松。\n 今天会在高山峡谷中穿行，吉隆沟植被茂盛，感受四季美景，途中众多景点，昔日尼泊尔尺尊公主就是由此路入藏嫁给松赞干布。\n 吉隆镇距离吉隆口岸还有24km路程，需在吉隆镇领取前往尼泊尔的通行证并盖章，早到先到政府大楼领取通行证，吉隆口岸下午5点下班，想当天过关拿好通行证后计算好时间尽量在4点前能到口岸，否则在吉隆镇停宿，不然口岸下班出不去还得原路爬坡返回镇上住宿。\n 吉隆镇食宿方便，有很多尼泊尔的商品，镇上也有很多兑换尼泊尔币的小贩，可以兑换些尼币。\n 吉隆镇及附近有多个景点，可在吉隆镇修整一天逛逛景点在出境尼泊尔",
"rankHard": "8",
"hour": "约4-6小时"
},
{
"day": "11",
"start": "吉隆镇",
"end": "巴扎尔",
"distance": "99km\n 吉隆镇-热索桥-沙布鲁（Thulo Syabru）-巴扎尔（Betrawoti Bazaar）\n 约 90km",
"describe": "行程较长，以下坡+上坡路段为主，尼泊尔境内全烂泥路，难度较大，尼泊尔境内泥石流塌方较多，路上注意安全\n \n 吉隆镇到口岸约24km路程，途中会检查镇上领取盖章的出境通行证，口岸通关速度很快，过了热索桥进入尼泊尔进内，尼泊尔海关在桥头的棚户区，会仔细检查行李，通关之后，继续前行大概 1 公里，左手边会有一座小楼，小楼的三楼处就是办理盖章的地方，一定要盖章，不然后续路程会很麻烦。\n 途经沙布鲁可以进入朗唐国家公园，这里两条经典徒步路线，镇上食宿都很好，到沙布鲁时间较晚可选择在此停宿，没有在国内办理购买尼泊尔电话卡可在沙布鲁购买",
"rankHard": "8",
"hour": "约6-8小时"
},
{
"day": "12",
"start": "巴扎尔",
"end": "加德满都",
"distance": "78km",
"describe": "行程适中，起伏缓上+起伏缓下路段为主，有一定难度，沿途城镇较多，食宿补给方便\n 加德满都泰米尔区是聚集了全世界的游客，是旅行者的天堂，在加德满都享受",
"rankHard": "6",
"hour": "约4-6小时"
}
]