﻿[
{
"day":"1",
"start":"丙中洛乡",
"end":"龙布村",
"distance":"46KM",
"describe":"行程较短，沿怒江边起伏前行，可在秋那桶村午餐。\n丙中洛乡至秋那桶村经过石门关观景台、雾里村等景点，风景独特，过秋那桶村后进入那恰洛大峡谷，自然风景险峻、壮阔。\n\n沿怒江前行，道路狭窄、难行，危险性高，注意安全。体力好可合并下一天行程到察瓦龙乡。",
"rankHard":"8",
"hour":"约5-7小时"
},
{
"day":"2",
"start":"龙布村",
"end":"察瓦龙乡",
"distance":"36KM",
"describe":"行程较短，全程在怒江边起伏前行，早出发，午餐自备干粮。\n\n进入干热河谷气候地段，景色独特、壮观。\n行程中会经过小流砂、和大流砂，此段路是全程危险系数很高的地段，通过时提前观察流砂区是否稳定，并快速通过。",
"rankHard":"8",
"hour":"约4-6小时"
},
{
"day":"3",
"start":"察瓦龙乡",
"end":"梦扎村",
"distance":"40KM",
"describe":"行程较短，察瓦龙乡到目巴村以起伏路段为主，目巴村到梦扎村为上坡路，海拔上升约700m，难度较大，早出发。可在目巴村午餐补给。\n\n刚出察瓦龙乡会有三叉路口，左转沿怒江的前行时通往察隅县的道路（右转是经碧土乡前往左贡县的道路）。\n在目巴村入口处，左转离开怒江，沿让舍曲前行（注意不要走错路）。\n\n进入原始森林，风景秀美、悠然，穿行其中，如在世外桃源之中。体力好可继续前进到锯木厂停宿，减轻下一天压力。",
"rankHard":"9",
"hour":"约6-8小时"
},
{
"day":"4",
"start":"梦扎村",
"end":"目若村",
"distance":"52KM",
"describe":"行程适中，陡上坡翻越齐马拉山垭口，海拔上升近2000m，长下坡到目若村，海拔下降约900m，海拔落差大，强度极大。早出发，可在锯木厂午餐。\n\n过锯木厂后有流砂区，注意安全。在原始森林中穿行，人迹罕至，风景很美。\n\n如无法完成，可在达争通停宿",
"rankHard":"10",
"hour":"约9-11小时"
},
{
"day":"5",
"start":"目若村",
"end":"嘎达食宿点",
"distance":"38KM",
"describe":"行程短，全程路况差，以长上坡路段为主，翻越两个垭口，难度大，早出发，午餐自备干粮\n\n途中有多个岔路口，注意不要走错。\n\n在原始森林和高原牧场中穿心，景色宜人，有种世外桃源的感觉。沿途牧民住所可以小憩、补给。",
"rankHard":"9",
"hour":"约6-8小时"
},
{
"day":"6",
"start":"嘎达食宿点",
"end":"察隅县",
"distance":"65KM",
"describe":"行程适中，以长上坡+长下坡路段为主，难度适中。午餐自备干粮，过垭口后村庄较多，补给方便。\n在河谷、森林中穿行，下坡路段，注意安全。\n\n如果不前往察隅县可在桑久村停宿。\n察隅县地处中印边境地区，气候温和，物产丰盈，有“雪域小江南”之称，少数名族众多，民俗文化独特。",
"rankHard":"7",
"hour":"约6-8小时"
}
]