﻿[
{
"day":"1",
"start":"察隅县",
"end":"目若村",
"distance":"103KM",
"describe":"行程适中，以长上坡+长下坡路段为主，翻越两个4000m以上垭口，海拔陡上约2400m，强度大，注意预防高反。早出发，可在明期村午餐，或自备干粮。\n\n出发前确保油料充足，到丙中洛乡中间无加油站。\n途中有多个岔路口，注意不要走错。\n道路狭窄、险峻，会车困难，注意行程安全。\n\n在峡谷、原始森林和高原牧场中穿心，景色宜人，如置身于世外桃源之中。沿途牧民住所可以小憩、补给。可合并下一天行程到察瓦龙乡停宿。",
"rankHard":"9",
"hour":"约6-8小时"
},
{
"day":"2",
"start":"目若村",
"end":"察瓦龙乡",
"distance":"92KM",
"describe":"行程适中，陡上坡路段翻越齐马拉山垭口，海拔上升约900m，长下坡路段到目巴村，海拔陡降2700m，目巴村到察瓦龙乡以起伏路段为主。\n\n在目巴村入口处，右转来到怒江边，沿怒江前行。\n快到察瓦龙乡会有三叉路口，右转沿怒江前行到察瓦龙乡（左转是经碧土乡前往左贡县的道路），注意不要走错。\n\n途中会有流砂区和涉水区，注意行车安全。\n\n穿行在原始森林和怒江大峡谷中，风景秀美、豪壮。",
"rankHard":"8",
"hour":"约5-7小时"
},
{
"day":"3",
"start":"察瓦龙乡",
"end":"丙中洛乡",
"distance":"82KM",
"describe":"行程不长，沿怒江边起伏前行。\n\n沿怒江前行，道路狭窄、险要，会车困难，危险性高，注意安全。\n行程中会经过大流砂和小流砂，此段路是全程危险系数很高的地段，通过时提前观察流砂区是否稳定，并快速通过，中午前通过较为安全。\n\n干热河谷气候地段，河谷中生长着成片的仙人掌；那恰洛大峡谷自然风景险峻、壮阔。\n丙中洛乡是初具规模的旅游小镇，景点众多，食宿方便。",
"rankHard":"7",
"hour":"约4-6小时"
}
]