﻿[
{
"day":"1",
"start":"叶城县",
"end":"阿克美其特村",
"distance":"100KM",
"describe":"行程长，全程缓上+爬坡路面，难度大，早出发，在戈壁、绿洲中艰难爬行，海拔上升1000m，注意控制骑行节奏。\n\n可在柯克亚乡午餐，备足补给。\n\n由于是第一天，对很多来说今天的行程是极其艰难的，如果实在无法完成，可在途中村庄寻求帮助，借宿、扎营。",
"rankHard":"10",
"hour":"约7-9小时"
},
{
"day":"2",
"start":"阿克美其特村",
"end":"库地",
"distance":"61KM",
"describe":"行程适中，爬坡路段幸苦，难度大，沿途补给点少，备足干粮和水。\n\n库地达坂现在叫阿卡孜大阪，为翻越达坂后进入昆仑山脉。\n\n库地是小乡村，住宿村中心是一座兵站，村口有检查站",
"rankHard":"8",
"hour":"约6-8小时"
},
{
"day":"3",
"start":"库地",
"end":"麻扎兵站",
"distance":"81KM",
"describe":"行程较长，以长上坡+长下坡路面为主，难度大，早出发，备足干粮和水。\n\n翻越麻扎达坂，“麻扎”在维语中是\"坟墓”的意思，爬坡异常艰难，海拔高，空气稀薄，易高反，注意预防。如不能翻越麻扎达坂，可在沿途道班扎营，过麻扎后有多处房屋和道班，体力好可以继续前行选择扎营地。\n\n麻扎在下坡路段，留意别错过，此处有道路前往世界第二峰-乔戈里峰（K2），徒步需6-8天。",
"rankHard":"10",
"hour":"约6-8小时"
},
{
"day":"4",
"start":"麻扎兵站",
"end":"黑卡道班",
"distance":"50KM",
"describe":"行程适中，全程以缓上路面为主 ，较为辛苦，备足干粮和水。\n\n沿途废弃道班房屋较多，可根据情况选择扎营。体力好建议合并下一天行程赶到三十里营房。",
"rankHard":"6",
"hour":"约6-8小时"
},
{
"day":"5",
"start":"黑卡道班",
"end":"三十里营房",
"distance":"74KM",
"describe":"行程适中，翻越黑卡达坂，上坡路段异常艰难，新藏线最后一段6km碎石路，下达阪后在河谷中穿行，易遇大风，难度较大，早出发，午餐自备干粮，途中无补给点。\n\n途经赛图拉哨所遗址，可停车小憩，三十里营房本是军营，现已发展为初具规模的小镇—撒图拉镇，可在此处补充后面无人区路段的补给。",
"rankHard":"8",
"hour":"约7-9小时"
},
{
"day":"6",
"start":"三十里营房",
"end":"大红柳滩",
"distance":"123KM",
"describe":"行程长，以起伏缓上+爬坡路段为主，沿途河谷、戈壁路段，易遇大风，难度极大，早出发，备足干粮和水。\n\n体力不支，可考虑康西瓦道班停宿分天。康西瓦烈士陵园距国道2km，此处侧风极大，建议步行前往参观。\n\n大红柳滩是进入无人区前最后一个补给点，在此处备足无人区的补给品。\n可在大红柳滩休整半天，下午出发爬坡24km到K509道班处扎营，好处在于为下一天的无人区段降低些难度，留出更多时间赶到扎营点，不足在于会增加一天的扎营，也需多携带补给。",
"rankHard":"10",
"hour":"约8-10小时"
},
{
"day":"7",
"start":"大红柳滩",
"end":"新甜水海兵站",
"distance":"109KM",
"describe":"行程长，翻越奇台达坂，沿途地势开阔，易遇大风，难度极大，骑行时间长，早出发。进入无人区路段，无补给点，备足行程所需补给品。\n\n甜水海兵站距国道约3km，不一定允许入住，礼貌请求，尽量争取，做好扎营准备，可在K594处板房处扎营，不建议野外扎营。\n\n如无法一天完成，可在509道班扎营分天。\n如在509道班扎营分天，第二天到新甜水海兵站时间还早的话，可直接赶到K620平房处扎营",
"rankHard":"10",
"hour":"约10-12小时"
},
{
"day":"8",
"start":"新甜水海兵站",
"end":"泉水沟",
"distance":"96KM",
"describe":"行程较长，以起伏+上坡路段为主，全程高海拔地区，难度较大，早出发。沿途无补给点。\n\n离开新疆，交界处里程碑发生漂移。进入藏区后沿途景色渐美，野生动物增多。\n\n泉水沟又叫死人沟，海拔较高，风景秀美，有检查站和一处简陋的住宿点。",
"rankHard":"9",
"hour":"约7-9小时"
},
{
"day":"9",
"start":"泉水沟",
"end":"松西村",
"distance":"56KM",
"describe":"行程适中，全程在海拔5000m之上路段起伏上下，翻越两个达坂，强度大，午餐自备干粮。\n\n途经龙木措路口，距离国道几公里，可前往游览。\n\n离开无人区，到达“西藏第一村”松西村。",
"rankHard":"8",
"hour":"约6-8小时"
},
{
"day":"10",
"start":"松西村",
"end":"多玛乡",
"distance":"100KM",
"describe":"行程较长，过红土大阪后一路起伏缓下，海拔下降约700m，沿途地势开阔，易遇逆风，艰难异常，早出发，午餐自备干粮。\n\n多玛乡地处湿地，风景秀美，野生动物众多，以黑颈鹤最为珍贵。",
"rankHard":"7",
"hour":"约7-9小时"
},
{
"day":"11",
"start":"多玛乡",
"end":"日土县",
"distance":"104KM",
"describe":"行程较长，以起伏路段为主，沿途易遇大风，难度较大，早出发，午餐自备干粮。\n\n途经班公湖，湖水清澈，风景如画，湖边有黑帐篷住宿点，可停宿，湖畔蚊子很多，注意防蚊。",
"rankHard":"8",
"hour":"约8-10小时"
},
{
"day":"12",
"start":"日土县",
"end":"狮泉河镇",
"distance":"126KM",
"describe":"行程长，以长上坡+长下坡路段为主，难度大，骑行时间长，早出发，午餐自备干粮，途经日松乡可补给。\n\n翻越拉梅拉山口后一路下行至狮泉河镇，距镇5km有检查站，狮泉河是阿里地区首府，可以办理到拉萨的边防证，办理人数多，早起排队办理，以免耽误行程",
"rankHard":"8",
"hour":"约8-10小时"
},
{
"day":"13",
"start":"狮泉河镇",
"end":"那木如村",
"distance":"76KM",
"describe":"行程适中，全程长上坡+长下坡+起伏路面为住，翻越狮泉河达坂，不遇逆风中等难度，午餐自备干粮。\n\n途经光棍里程碑（K1111）和前往札达县的岔路，可前往游览札达土林和古格王朝。\n\n那木如村有温泉，距离国道数公里，体力好，可继续前行翻越雅切拉达坂后到江布村停宿。",
"rankHard":"6",
"hour":"约5-7小时"
},
{
"day":"14",
"start":"那木如村",
"end":"门士乡",
"distance":"114KM",
"describe":"行程较长，起伏上坡路段较多，难度较大，早出发，沿途乡村多，午餐补给方便。\n\n快到巴尔兵站有前往扎达县的公路，可在巴尔兵站停宿，乘车前往扎达游览。",
"rankHard":"8",
"hour":"约6-9小时"
},
{
"day":"15",
"start":"门士乡",
"end":"塔尔钦村",
"distance":"60KM",
"describe":"行程不长，难度不大，午餐自备干粮。\n\n沿途风景壮阔，进入藏区圣地，神山-冈仁波齐峰静静的坐落在道路一侧。\n\n塔尔钦在神山冈仁波齐山脚，距离国道3km，由此开启徒步转山的朝圣之旅，进村路口有售票处和检查站。",
"rankHard":"6",
"hour":"约4-6小时"
},
{
"day":"16",
"start":"塔尔钦村",
"end":"霍尔乡",
"distance":"43KM",
"describe":"行程较短，以平缓路段为主，难度小，可在黑帐篷或到达霍尔后午餐。\n\n沿途风景绚丽，离开冈仁波齐峰，拉昂错、玛旁雍措、纳木纳尼峰交错出现。\n\n霍尔乡在玛旁雍措湖畔，可沿环湖路骑行转湖。",
"rankHard":"4",
"hour":"约3-5小时"
},
{
"day":"17",
"start":"霍尔乡",
"end":"马攸桥检查站",
"distance":"113KM",
"describe":"行程较长，翻越两个山口，难度较大，早出发，午餐自备干粮。\n\n途经公珠措，风景非常美丽。\n\n马攸桥检查站检查较为严格，早晨检查站通行车辆多，业务繁忙，当日通过检查后再安排住宿。",
"rankHard":"7",
"hour":"约9-11小时"
},
{
"day":"18",
"start":"马攸桥检查站",
"end":"帕羊镇",
"distance":"103KM",
"describe":"行程较长，以平缓路面为主，不遇逆风，难度不大，早出发，午餐自备干粮，途中有藏族帐篷茶馆，可休息喝茶。\n\n帕羊镇较大，物资较为丰富。",
"rankHard":"6",
"hour":"约7-10小时"
},
{
"day":"19",
"start":"帕羊镇",
"end":"扎东（老仲巴）",
"distance":"90KM",
"describe":"行程较长，翻越两个山口，遇逆风难度颇大，早出发。途中有村庄、茶馆可补给。\n\n沿途沙丘地形，风景独特。扎顿寺距扎东1km，可前往参观游览。\n\n如无法赶到扎东，可在仲巴县城停宿，县城距国道约5km，扎东是不大，有多家藏族民宿。",
"rankHard":"8",
"hour":"约7-9小时"
},
{
"day":"20",
"start":"扎东（老仲巴）",
"end":"拉藏乡",
"distance":"57KM",
"describe":"行程适不长，全程上坡路+起伏路段为主，翻越突击拉山，颇有难度，午餐自备干粮。",
"rankHard":"7",
"hour":"约4-6小时"
},
{
"day":"21",
"start":"拉藏乡",
"end":"萨嘎县",
"distance":"86KM",
"describe":"行程较长，起伏、上坡路段多，较为幸苦，早出发，午餐自备干粮。\n\n途经达吉岭寺，可前往参观，萨嘎县住宿条件较好，物资齐全。",
"rankHard":"8",
"hour":"约6-8小时"
},
{
"day":"22",
"start":"萨嘎县",
"end":"切热乡",
"distance":"95KM",
"describe":"行程较长，以上坡+起伏路段为主，翻越愧拉山，难度较大，早出发，午餐自备干粮，沿途路过乡村，可补给。",
"rankHard":"8",
"hour":"约7-9小时"
},
{
"day":"23",
"start":"切热乡",
"end":"桑桑镇",
"distance":"85KM",
"describe":"行程较长，翻越两个山口，全程起伏路段为主，早出发，午餐自备干粮。\n\n途中里程碑进入出生年份路段，在自己出生年份里程碑处留张合影，颇具纪念价值。",
"rankHard":"8",
"hour":"约7-9小时"
},
{
"day":"24",
"start":"桑桑镇",
"end":"拉孜县",
"distance":"120KM",
"describe":"行程长，沿途翻越多个山口，海拔落差不大，有一定强度，早出发，可在卡嘎镇午餐。\n\n沿途风景壮阔，途经浪错，景色极美，新藏公路G219将在查务乡结束，进入G318路段，可由查务乡沿G318前往珠峰。\n\n拉孜以藏刀最为出名，不妨选购一把邮寄回家作为纪念（刀具不便携带）",
"rankHard":"8",
"hour":"约7-9小时"
},
{
"day":"25",
"start":"拉孜县",
"end":"日喀则",
"distance":"150KM",
"describe":"行程长，翻越措拉山口，全程以平缓起伏路面为主，较为幸苦，早出发，可在柳乡午餐，沿途乡镇较多补给方便。\n\n萨迦县路口距萨迦县约20km，可由路口前往萨迦县游览萨迦寺，途经318国道5000公里纪念碑。\n\n日喀则是西藏第二大市，物资丰富，住宿条件优越，扎什伦布寺气势恢宏，值得一游。",
"rankHard":"8",
"hour":"约8-10小时"
},
{
"day":"26",
"start":"日喀则",
"end":"江孜县",
"distance":"93KM",
"describe":"行程较长，沿S204前行，一路地势平坦，难度不大，可在白朗县午餐。\n\n沿途田园山水风光绚丽秀美，油菜花海，唯美至极。\n\n江孜景点众多，可前往白居寺、江孜古堡参观游览。\n\n赶路可以选择继续走318前往拉萨，行程可减少一天，但是沿途的风景就比省道逊色的多！",
"rankHard":"4",
"hour":"约4-6小时"
},
{
"day":"27",
"start":"江孜县",
"end":"浪卡子县",
"distance":"103KM",
"describe":"行程较长，沿S307前行，翻越两个山口，难度较大，早出发，午餐自备干粮。\n\n沿途经过满拉水库、卡若拉冰川、乃钦康桑雪山，景色壮丽。\n\n浪卡子县并不大，位于空母错湖畔。",
"rankHard":"8",
"hour":"约6-8小时"
},
{
"day":"28",
"start":"浪卡子县",
"end":"拉萨",
"distance":"160km",
"describe":"行程长，全程短上坡+长下坡+平缓路段为主，较为辛苦，早出发，沿途乡镇较多，午餐补给方便。\n\n前半程圣湖羊卓雍错一路伴行，风景灵秀，洗净风尘。\n\n抵达拉萨来到布达拉宫前，为这段骑行之旅画上完美句号。",
"rankHard":"8",
"hour":"约7-9小时"
}
]