﻿[
{
"day":"1",
"start":"海口",
"end":"儋州市",
"distance":"127KM",
"describe":"行程较长，以平缓路段为主，有一定强度。沿途城镇较多，午餐、补给方便，早出发。\n\n一路林荫道路\n到儋州市后享受蓝洋温泉。",
"rankHard":"8",
"hour":"约4-6小时"
},
{
"day":"2",
"start":"儋州市",
"end":"昌江县",
"distance":"73KM",
"describe":"行程适中，全程以山路为主，上、下坡路段较多，体力消耗大，可在雅星镇午餐。\n\n昌江是黎族自治县，历史文化古迹丰富，可选择游览。",
"rankHard":"8",
"hour":"约5-7小时"
},
{
"day":"3",
"start":"昌江县",
"end":"东方市",
"distance":"56KM",
"describe":"行程不长，进入山区地形，上、下坡路段较多，强度较大，沿途补给方便。\n\n沿途经过大田坡鹿自然保护区，可前往参观。可于东方市游览天南第一泉。",
"rankHard":"7",
"hour":"约4-6小时"
},
{
"day":"4",
"start":"东方市",
"end":"黄流镇",
"distance":"80KM",
"describe":"行程适中，以平缓路段为主，强度较大，沿途午餐、补给方便。\n\n东方市天南第一泉参观，可前往游览。\n\n黄流镇较大，有“中国民间艺术之乡”之称。出黄流镇 后38km平缓路段到板桥镇。",
"rankHard":"6",
"hour":"约5-7小时"
},
{
"day":"5",
"start":"黄流镇",
"end":"亚龙湾",
"distance":"111KM",
"describe":"行程较长，以平缓路段为主，有一定强度。\n\n途经天涯镇，游览“天涯”、“海角”等景点。\n\n接近三亚，沿途逐渐繁花，可在三亚停宿，享受海滩度假生活。\n\n继续前行，到亚龙湾，享受阳光、沙滩的悠闲度假时光。",
"rankHard":"6",
"hour":"约6-8小时"
},
{
"day":"6",
"start":"亚龙湾",
"end":"兴隆温泉",
"distance":"111KM",
"describe":"行程较长，以上、下坡路段为主，翻越牛岭口山，强度较大，早出发，沿途午餐补给方便。\n\n到海棠镇后，可前往海南潜水圣地蜈支洲岛参加潜水活动，畅游海底世界，过英州镇后可前往新村镇游览南湾猴岛。\n\n兴隆温泉很有名气，到达后，泡泡温泉，一解旅途疲乏之意，悠哉游哉。",
"rankHard":"8",
"hour":"约6-8小时"
},
{
"day":"7",
"start":"兴隆温泉",
"end":"博鳌镇",
"distance":"92",
"describe":"行程适中，起伏路段为主，部分坡度明显，比较吃力，沿途午餐补给方便。\n\n\n博鳌镇作为博鳌亚洲论坛的永久会址地，蜚声国际，博鳌寺的观音塔可俯览博鳌全景。\n\n琼海的加积鸭是海南‘四大名菜’值得品尝。",
"rankHard":"6",
"hour":"约5-7小时"
},
{
"day":"8",
"start":"博鳌镇",
"end":"文昌市",
"distance":"65KM",
"describe":"行程不长，道路平缓，沿途城镇较多，午餐补给方便。\n\n沿海岸前行，穿行在风景如画的林荫道上，享受惬意的骑行时光。可在途中沙滩小憩，亲密接触蔚蓝的大海，享受细软的沙滩。\n\n到达后，安排好住宿，空车前往东郊椰林游览，也可游览完椰林后，在海边露营。徜徉于万亩椰林中，震撼的同时更多的是惬意。\n\n文昌的文昌鸡是海南‘四大名菜’之一，值得品尝。",
"rankHard":"5",
"hour":"约4-6小时"
},
{
"day":"9",
"start":"文昌市",
"end":"海口市",
"distance":"83KM",
"describe":"行程较长，骑行难度不大，沿途城镇较多，午餐补给方便。\n\n沿途风景优美，灵山镇有历史古迹敦笃亭，可停车小憩。\n到达海口，完成环岛之旅。",
"rankHard":"5",
"hour":"约5-7小时"
}
]