﻿[
{
"day":"1",
"start":"成都",
"end":"雅安市",
"distance":"154KM",
"describe":"行程长，骑行时间长，早出发，在城市间穿行，路况虽好，但车流量大，注意安全。\n\n出成都沿成新蒲快速通道前行，在新津段与G108交汇处转上新邛公路，前往邛崃市，品尝当地美食奶汤面和凉拌鸡片，出邛崃沿G318前往雅安，也可沿成新蒲快速路行至蒲塘路口，右转上蒲塘路，在大塘镇左转上G318前往雅安。\n\n抵达雅安会看到马踏飞燕雕塑，标示着第一天的行程即将结束。",
"rankHard":"8",
"hour":"约8-10小时"
},
{
"day":"2",
"start":"雅安市",
"end":"新沟村",
"distance":"88KM",
"describe":"行程适中，基本是起伏上坡路段，途中午餐、补给方便。\n由于此段在修高速公路，雨季更是滑坡、泥石流高发路段，路况复杂、多变，要有心理准备，注意安全！\n\n在青衣江畔，青山绿水伴行。\n\n新沟村是个小村庄，因川藏南线骑行的火热，兴起了很多家庭式旅馆",
"rankHard":"8",
"hour":"约8-11小时"
},
{
"day":"3",
"start":"新沟村",
"end":"康定市",
"distance":"101KM",
"describe":"行程较短，长上坡+长下坡+起伏上坡路段为主，翻越川藏南线上第一座大山，过二郎山隧道后高原地貌出现，与来路的风景截然不同。\n途经小天都隧道，灯光昏暗，提前准备灯具，注意安全。\n\n下二郎山途中的甘谷地村加油站处有通往S211的岔路，可前往鱼进沟村牛背山观看云海，或前往海螺沟观赏贡嘎雪山、冰川，享受独特的冰川温泉，游览磨西古镇。\n泸定县大渡河上的泸定桥是必去的红色景点。\n到康定后，可乘车前往跑马山或木格错游览。\n\n如无法完成，可在泸定县停宿。",
"rankHard":"9",
"hour":"约7-9小时"
},
{
"day":"4",
"start":"康定市",
"end":"新都桥镇瓦泽乡",
"distance":"74KM",
"describe":"行程适中，长上坡+长下坡路面，翻越第一座4000m以上的大山，初次接近高原很可能在上山路上出现高原反应，注意控制骑行节奏，预防高反，可在折多塘村午餐或自备干粮。\n\n折多山垭口寒冷，注意保暖，天气清朗垭口可眺望“蜀山之王”贡嘎雪山，下坡路段坡陡弯急，且有多个减速带，控制车速，注意安全。\n\n如体力不支或出现高反症状可在折多塘村停宿，泡泡温泉，欣赏远处雪山美景。\n\n瓦泽乡风景秀美，有贡嘎雪山观景台，也可前往居里寺游览。",
"rankHard":"9",
"hour":"约8-10小时"
},
{
"day":"5",
"start":"新都桥镇瓦泽乡",
"end":"相克宗",
"distance":"100KM",
"describe":"行程较长，长上坡+长下坡路面，全程柏油路，午餐自备干粮。\n高尔寺隧道已通车，走隧道可少走约20km路程，节省体力。老路路况堪忧，过高尔寺山垭口后仍有数公里上坡路面，但风景更美。\n\n瓦泽乡至新都桥镇路段被称为“摄影家的天堂”，夏秋季节风景很美。\n\n在相克宗藏族家庭旅馆体验藏族生活风情，室内富丽堂皇的装饰风格带来极大的视觉享受。",
"rankHard":"10",
"hour":"约10-13小时"
},
{
"day":"6",
"start":"相克宗",
"end":"理塘县",
"distance":"120KM",
"describe":"行程长，沿途翻越剪子湾山（隧道已通）、卡子拉山、脱洛拉卡山（隧道已通）等多座大山，道路以长上坡+起伏上下坡路面为主，骑行难度大，早出发，备足干粮和水。\n\n沿途经过多个已通或再修隧道，如隧道全通，难度有所降低。如无法一天完成，可在红龙乡停宿。\n\n沿途风景壮阔，雪山和草甸相伴，如在天际遨游。\n理塘是世界海拔最高的县城，可游览康区历史悠久规模最大的藏传佛教皇家寺庙-长青春科尔寺，也可由此乘车游览稻城、亚丁景区。",
"rankHard":"10",
"hour":"约9-11小时"
},
{
"day":"7",
"start":"理塘县",
"end":"巴塘县",
"distance":"174KM",
"describe":"行程长，以平缓+长上坡+长下坡路面为主，易逆风，人烟稀少，最好结伴而行，早出发。可在岭戈村午餐或自备干粮。\n\n途经毛垭草原，风景烂漫，如置身于童话世界。过海子山垭口后，美丽圣洁的姊妹湖迎面而来，下坡路段长，且会经过多个无灯隧道，提前准备好灯具，控制车速，注意安全，隧道路段偶有抢劫发生，结伴而行。\n\n如无法一天完成可在禾尼乡岭戈村停宿，晚上品尝美味的牦牛肉，观赏高原上璀璨的银河。",
"rankHard":"9",
"hour":"约9-11小时"
},
{
"day":"8",
"start":"巴塘县",
"end":"芒康县",
"distance":"107KM",
"describe":"行程较长，大部分为缓上坡和爬坡路面，海拔落差接近1700m，难度很大，准备足够的能量补给品。\n\n海通沟沿途落石和泥石流路段，路况复杂，注意安全。途经金沙江大桥，是川、藏分界，过桥后正式进入西藏境内。\n\n无法完成行程，可在温泉山庄或海通兵站停宿。",
"rankHard":"10",
"hour":"约10-12小时"
},
{
"day":"9",
"start":"芒康县",
"end":"荣许兵站",
"distance":"104KM",
"describe":"行程较长，翻越拉乌山和觉巴山两座大山，难度大，对体力和忍耐力是很大的考验，早出发，可在如美镇午餐或自备干粮。\n\n沿途欣赏原生态藏村，秀美的田园风光和波澜壮阔的澜沧江带来极大的视觉冲击。\n\n如无法完成可在如美镇或登巴村停宿。",
"rankHard":"10",
"hour":"约10-12小时"
},
{
"day":"10",
"start":"荣许兵站",
"end":"左贡县",
"distance":"60KM",
"describe":"行程适中，以长上坡+长下坡路面为主，翻越川藏南线上第一座海拔超过5000m的大山-东达山，山口天气多变，风大温低，且易出现高反症状，做好防寒防高反的准备。",
"rankHard":"8",
"hour":"约7-10小时"
},
{
"day":"11",
"start":"左贡县",
"end":"邦达镇",
"distance":"106KM",
"describe":"行程较长，全程以起伏上行路面为主，开阔路段易刮逆风，早起赶路，可在田妥镇午餐，也可自备干粮。\n\n全程在玉曲河的陪伴下前行，她就如一位不知疲倦的演奏家，凑出各种变幻的旋律，缓解苦行者们内心的孤寂，沿途美丽的河套风光也是对苦行者们最好的褒奖。",
"rankHard":"6",
"hour":"约6-9小时"
},
{
"day":"12",
"start":"邦达镇",
"end":"八宿县",
"distance":"95KM",
"describe":"行程较长，全程长上坡+长下坡+起伏路路面，下午易出现逆风，较为辛苦，早出发，午餐自备干粮。\n\n沿途壮阔的风景应接不暇，鬼斧神工的‘业拉山108拐’和怒江大桥彰显着中国筑路工人的伟大，奔腾的怒江、险峻的峭壁显示着自然之力的不可抗拒，下业拉山路段，坡陡弯急，提前检查刹车，控制车速，注意安全。",
"rankHard":"7",
"hour":"约6-9小时"
},
{
"day":"13",
"start":"八宿县",
"end":"然乌镇",
"distance":"90KM",
"describe":"行程较长，上坡路段长，对身体和精神都是巨大考验，尽早出发。午餐自备干粮。\n\n沿途风景秀丽，过安久拉山后，一路峭壁林立，虽蔚为壮观，但飞石较多，快速通过，注意安全。\n\n然乌镇在安目错湖畔，到湖边近距离感受她的妩媚，可乘车前往来古冰川或米堆冰川游览。\n",
"rankHard":"8",
"hour":"约7-10小时"
},
{
"day":"14",
"start":"然乌镇",
"end":"波密县",
"distance":"128KM",
"describe":"行程长，以起伏下坡路面为主，难度不大，尽早出发，午餐自备干粮。\n\n一路景色绝美，安目错时而秀艳、时而烟雨蒙蒙，帕隆藏布江奔腾欢快，远处的雪顶冰峰在茂密的森林中若隐若现，崖壁上的溪流直泻而下，里程碑K3911处有前往米堆冰川的岔路，感兴趣可前往游览米堆冰川，途中可能会有多处涉水区，注意安全。\n\n波密有通往墨脱县的公路，感兴趣可前往，需要边防证。",
"rankHard":"6",
"hour":"约7-9小时"
},
{
"day":"15",
"start":"波密县",
"end":"东久乡",
"distance":"132KM",
"describe":"行程长，以起伏缓下+缓上路段为主，过通麦大桥后，“通麦天险”路段以前道路泥泞难行，危险丛生，现在此路段新建大桥和隧道都已经通车，路况好转，更加安全。尽早出发，可在通麦镇午餐。\n\n通麦大桥是进出藏区的咽喉要道，以前的简易栈桥通行慢，易发生事故，很多鲜活的生命在多次事故中逝去，新桥建成后，通行能力明显提升，更加安全，向建设者们致敬。\n\n排龙乡是雅鲁藏布江大峡谷的重要入口，可由排龙乡出发，花两天时间徒步雅鲁藏布江大峡谷。",
"rankHard":"8",
"hour":"约8-10小时"
},
{
"day":"16",
"start":"东久乡",
"end":"林芝市",
"distance":"98KM",
"describe":"行程较长，以长上坡和长下坡路面为主，难度适中，午餐自备干粮。\n\n鲁朗有“小瑞士”之称，沿途雪山、森林密布，风景绚丽，穿行期间，风景秀美。\n到色季拉山途中有多处观景台，天气好可眺望有西藏“众山之父”之称的“南迦巴瓦峰”，林芝镇到八一镇间尼洋河风景亦是美不胜收，途经号称“世界柏树王”巴结乡巨柏林，可前往游览，高海拔骑行，注意防寒保暖。\n\n八一镇是林芝地区首府，有省道连接山南地区。",
"rankHard":"8",
"hour":"约7-9小时"
},
{
"day":"17",
"start":"林芝市",
"end":"工布江达县",
"distance":"130KM",
"describe":"行程长，全程以平路+起伏路面为主，地势开阔路段易刮逆风，尽早出发，沿途乡镇较多，补给方便，可在百巴镇午餐\n\n尼洋河一路相伴，风景不错，巴河镇有道路通往巴松措，计划前往巴松措，可在巴河镇停留。",
"rankHard":"6",
"hour":"约7-9小时"
},
{
"day":"18",
"start":"工布江达县",
"end":"松多乡",
"distance":"102KM",
"describe":"行程较长，以上行路面为主，全程海拔上升近1000m，且下午易刮逆风，尽早出发，准备些能量补给品，可在加兴乡午餐。\n\n沿途多处历史古迹，可前往参观游览。松多海拔高，夜晚泡着温泉仰望星空银河，享受惬意的时光。",
"rankHard":"6",
"hour":"约7-9小时"
},
{
"day":"19",
"start":"松多乡",
"end":"拉萨",
"distance":"180KM",
"describe":"行程长，长上坡路面翻越川藏南线最高也是最后一座大山-米拉山，长下坡路面结束后平缓路面直通终点拉萨，道路虽长，难度虽大，也难减冲刺的速度，尽早出发，沿途城镇较多，午餐、补给方便。\n\n快到墨竹工卡时会路过松赞干布出生地，可停车参观，如无法一天抵达拉萨，可在墨竹工卡停宿。\n\n抵达圣城拉萨那一刻，这一路的艰难险阻都是值得的，先到布达拉宫前任性的摆拍吧，为这段意义非凡的骑行之旅画上完美的句号，在拉萨感受藏族的人文风情和佛教文化。\n\n拉萨是终点，可谁又知道，它不是开启下段旅程的起点呢。",
"rankHard":"10",
"hour":"约9-12小时"
}
]
