﻿[
{
"day":"1",
"start":"成都",
"end":"泸定县",
"distance":"280KM",
"describe":"成都出发经后150公里左右抵达雅安，曾是西康省省会的雨城雅安，以“雅雨、雅女、雅鱼”三绝而闻名于世，自古以来就是川藏、滇藏的咽喉，也是古南方丝绸之路和茶马古道的门户和必经之路。\n\n沿秀美青衣江直至巍巍二郎山，穿越二郎山隧道，海拔3437米的二郎山以前由于山高、路面狭窄、坡急而成为川藏路上的第一天险。\n\n穿过隧道下山途经甘谷地村，可由此沿大渡河峡谷，顺流而下，抵达世界级的贡嘎山海螺沟冰川景区停宿，游览海螺沟冰川、贡嘎雪山、磨西古镇。到泸定后游览著名红色景点-泸定桥。",
"rankHard":"6",
"hour":"行车约5-7小时"
},
{
"day":"2",
"start":"泸定县",
"end":"新都桥镇",
"distance":"125KM",
"describe":"路过康定，可前往跑马山、木格错游览，征服藏汉分界线、海拔4298米的塞外屏障折多山，进入真正意义上的藏区，抵达新都桥。\n\n被誉为“摄影天堂”的新都桥镇，又叫东俄洛，是川藏南线旅游和川藏北线旅游的分路口，夏秋季节风景最美，瓦泽乡有观赏贡嘎雪山的观景台，也可前往居里寺参观游览。",
"rankHard":"5",
"hour":"行车约3-5小时"
},
{
"day":"3",
"start":"新都桥镇",
"end":"理塘县",
"distance":"210KM",
"describe":"经雅江前往世界高城理塘，这里是川藏南线旅游途经最高的城市,也因此被称作世界高城，先翻过高尔寺山（隧道已通）、剪子湾山（隧道已通）、后翻越卡子拉山，连续翻越多座海拔超过4000m的垭口，极易出现高原反应，提前做好预防措施。\n\n理塘可前往稻城-亚丁，穿过美丽的无量河风光后翻越兔儿山风景区和海子山自然保护区（青藏高原最大的古冰体遗迹）抵达稻城县，如果前去行程加两天，理塘至稻城约150km，稻城县至亚丁村约110km，在理塘游览康区历史悠久规模最大的藏传佛教皇家寺庙-长青春科尔寺。",
"rankHard":"8",
"hour":"行车约6-8小时"
},
{
"day":"4",
"start":"理塘县",
"end":"巴塘县",
"distance":"170KM",
"describe":"出理塘，在鲜花烂漫的毛垭大草原上欢快前行，翻越海子山，观赏美丽圣洁的海子山姊妹湖后，一路下坡到巴塘，途经多个隧道，已经安装照明设施，更加安全、便捷 。",
"rankHard":"4",
"hour":"行车约3-5小时"
},
{
"day":"5",
"start":"巴塘县",
"end":"左贡县",
"distance":"260KM",
"describe":"离开巴塘，便进入峡谷，跨过金沙江，这里的竹巴龙就是川藏南线上四川和西藏的分界线，通过之后便正式进入了西藏自治区。\n\n过金沙江大桥后，警务站会领取至芒康的限速条，沿途塌方泥石流高发路段，注意行车安全。\n\n芒康县城，是川藏南线进入西藏的第一个县城，发源于青藏高原唐古拉山脉的金沙江、澜沧江和怒江，在此区域近几百公里的范围内呈平行竟流之势，构成“两壁夹三江”的壮阔风景，境内层峦叠嶂，多峡谷，地形复杂，川藏南线和滇藏线便在芒康会合，翻越海拔超过5000m的东达山，山口气候恶劣，温低风大，易出现高反症状，做好预防措施。",
"rankHard":"8",
"hour":"行车约6-8小时"
},
{
"day":"6",
"start":"左贡县",
"end":"然乌镇",
"distance":"290KM",
"describe":"左贡出发到邦达，海拔在4400米的邦达是川藏南线和北线的交会处，北通昌都，西至林芝、拉萨，是一个重要的交通枢纽，藏东唯一的机场就建在开阔的邦达草原，是世界上海拔最高的民用机场\n\n告别草原，翻越横断山最大的天险-业拉山，经著名的一八零八拐下行到怒江边，抵达八宿，八宿藏语意为“勇士山脚下的村庄”，沿途雪山、原始森林和田园风光交相辉映，景色出奇的美丽\n\n出八宿，翻越安久拉山后抵达然乌镇，峭壁林立，蔚为壮观，全程多个限速段，注意控制到达每个限速点时间，然乌镇位于安目错湖畔，周围有两个冰川，米堆冰川在前往波密途中，来古冰川在然乌镇东南方向，米堆冰川被地理学家们称作“世界级冰川奇观”，它有着近800米落差的冰瀑布，此外，它还是一条会“突然跃动”的冰川，这在全世界的冰川中都是非常罕见的，可选择前往游览",
"rankHard":"8",
"hour":"行车约7-9小时"
},
{
"day":"7",
"start":"然乌镇",
"end":"波密县",
"distance":"130KM",
"describe":"出然乌一路景色绝美，安目错时而秀艳、时而烟雨蒙蒙，帕隆藏布江奔腾欢快，远处的雪顶冰峰在茂密的森林中若隐若现，崖壁上的溪流直泻而下。\n\n里程碑K3911处有前往米堆冰川的岔路，感兴趣可前往游览米堆冰川，途中可能会有多处涉水区，注意安全。\n\n波密有通往墨脱县的公路，感兴趣可前往游览，需要边防证。",
"rankHard":"3",
"hour":"行车约4-6小时"
},
{
"day":"8",
"start":"波密县",
"end":"林芝市",
"distance":"235KM",
"describe":"川藏线上最后的天险通麦，雅鲁藏布大峡谷，南迦巴瓦峰，色季拉山，尼洋河，“世界柏树王”巴结乡巨柏林。\n鲁朗镇加油站正在建设中，预计2019年可能完工。现有临时加油站，供不应求，当地人也是限量加油，经常下午就会断油！\n\n从波密县城扎木镇，在原始森林中穿行，向川藏线上最后的天险通麦出发，通麦至排龙15公里路段，在雨季时，山洪和泥石流常引发山体滑坡而使公路中断，现在此路段新建大桥和隧道都已经通车，路况好转，更加安全。\n排龙门巴民族乡是通往雅鲁藏布大峡谷的重要入口，从该乡沿帕龙藏布南行，抵大峡谷拐弯弧顶处一段是最具探险旅游特色的路线。\n\n穿过密林似海的鲁朗，翻越冰雪覆盖，云雾缭绕，海拔4702米的色季拉山，该山以春夏时的杜鹃花海闻名，同时也是观看南迦巴瓦峰最好的地方之一。\n\n翻过色季拉山即一路下坡到尼洋河下游河谷的林芝县城，到八一镇全是两排柏杨装点着的柏油公路，距八一镇4公里有的号称“世界柏树王”巴结乡巨柏林，可前往游览。",
"rankHard":"10",
"hour":"行车约5-7小时"
},
{
"day":"9",
"start":"林芝市",
"end":"拉萨",
"distance":"400KM",
"describe":"林芝市（八一镇）出发，沿途欣赏秀美的尼洋河风光，途经巴河镇，可前往红教圣湖巴松错游览，翻越米拉山，沿途多处历史遗迹，可前往参观游览，沿途多个路段限速，注意控制抵达限速点的时间。\n\n抵达魂牵梦绕的圣城拉萨，气势恢宏的布达拉宫、历史悠久的寺庙，彰显着拉萨璀璨、深厚的文化底蕴。",
"rankHard":"6",
"hour":"行车约8-10小时"
}
]