﻿[
{
"day":"1",
"start":"西宁市",
"end":"倒淌河镇",
"distance":"106KM",
"describe":"行程较长，海拔上升较大，早出发，可在湟源县午餐。\n\n翻越日月山，山口附近有岔路前往日月山景区，可由此路前往游览后，此路稍远，最终与G109汇合，可前往参观游览湟源县内的赞普林卡寺。\n\n倒淌河镇是青藏公路（109国道）与青康公路（214国道）交汇点。可沿G109前往青海湖，进行环湖骑行之旅。",
"rankHard":"8",
"hour":"约7-9小时"
},
{
"day":"2",
"start":"倒淌河镇",
"end":"河卡镇",
"distance":"118KM",
"describe":"行程长，短距离上坡路段翻越柳梢沟垭口，过垭口后起伏下坡到共和县，出共和县后起伏缓上经过铁盖乡抵达河卡镇，难度大。可在共和县午餐\n。\n进入高原牧区，景色宜人，茫茫草原、奔跑的牛羊、头顶不远处的蓝天白云。\n无法一天完成可在共和县停宿。",
"rankHard":"9",
"hour":"约7-9小时"
},
{
"day":"3",
"start":"河卡镇",
"end":"青根河村",
"distance":"57KM",
"describe":"行程短，上坡路段翻越河卡山，短暂下坡后一路起伏缓上路段经过大河坝后抵达青根河村。有一定强度，午餐自带干粮。\n河卡山隧道在高速公路上，骑行需沿国道翻越垭口。\n\n过河卡山后的峡谷地带，景色独特，藏情浓郁。\n体力好可继续前往温泉乡，需翻越鄂拉山，难度大，慎重选择。",
"rankHard":"7",
"hour":"约4-6小时"
},
{
"day":"4",
"start":"青根河村",
"end":"温泉乡",
"distance":"52KM",
"describe":"行程短，长上坡路段翻越鄂拉山，有一定强度。午餐自备干粮。\n\n一路以峡谷和高原草场风景为主。\n温泉以一泉露天温泉而得名，温泉干净，水温高，可以泡泡温泉解解乏。温泉乡寺庙的经幡飘扬，异常壮观。",
"rankHard":"6",
"hour":"约4-6小时"
},
{
"day":"5",
"start":"温泉乡",
"end":"花石峡镇",
"distance":"76KM",
"describe":"行程适中，翻越姜路岭，以上坡、起伏路段为主，强度较大。午餐自备干粮。\n\n沿途风景壮丽，能够看见苦海和藏族四大神山之一的“阿尼玛卿”，里程碑K379处有道路通往神山脚下，约70km路程，途中经过下大武乡。\n花石峡镇海拔较高，注意预防高反。",
"rankHard":"8",
"hour":"约5-7小时"
},
{
"day":"6",
"start":"花石峡镇",
"end":"玛多县",
"distance":"82KM",
"describe":"行程较长，缓上坡翻越长石头山后缓下、平缓路段抵达玛多县，玛多县距国道约2km，难度适中。午餐自备干粮。\n\n一路风景秀美，一望无际的果洛大草原。\n可在玛多县休整，乘车前往两湖一碑（扎陵湖、鄂陵湖、牛头碑）景点游览。",
"rankHard":"6",
"hour":"约4-6小时"
},
{
"day":"7",
"start":"玛多县",
"end":"野牛沟",
"distance":"60Km",
"describe":"行程较短，翻越大野马岭和小野马岭，坡度不大，以起伏路段为主，难度不大。午餐自备干粮，或者到达野牛沟后再午餐。\n\n沿途湖泊众多，风景秀美，翻越大野马岭的路上可以欣赏到星宿海的美景。",
"rankHard":"6",
"hour":"约3-5小时"
},
{
"day":"8",
"start":"野牛沟",
"end":"清水河镇",
"distance":"122KM",
"describe":"行程长，长上坡路段翻越查立坪垭口和巴颜喀拉山垭口，难度大，早出发。\n午餐自备干粮。\n部分路段路面不佳，注意安全。",
"rankHard":"9",
"hour":"约7-9小时"
},
{
"day":"9",
"start":"清水河镇",
"end":"歇武镇",
"distance":"101KM",
"describe":"行程较长，以起伏缓下路段为主，难度不大。可在歇武镇午餐。\n高速公路穿过隧道，骑友可能无法穿过隧道，需沿国道翻越垭口。\n\n进入长江源地区，沿途风景秀美壮阔。\n",
"rankHard":"6",
"hour":"约5-7小时"
},
{
"day":"10",
"start":"歇武镇",
"end":"玉树",
"distance":"50KM",
"describe":"行程短，以起伏缓下+起伏缓上路段为主，难度不大。午餐自备干粮。\n途经通天河、三江源自然保护区，景色宜人。\n\n玉树是康巴藏族地区，名族风情浓厚，可参观游览的地方很多，每年7-8月会有盛大的康巴艺术会，不容错过。",
"rankHard":"5",
"hour":"约3-5小时"
},
{
"day":"11",
"start":"玉树",
"end":"下拉秀镇",
"distance":"90KM",
"describe":"行程较长，以长上坡+长下坡路段为主，翻越尕拉尕山垭口，难度较大。午餐自备干粮。\n\n出玉树后不就路过文成公主庙路口，可由路口前往文成公主庙游览。\n上来秀至下拉秀镇路段在青山峡谷中穿行，深谷峭壁，气势磅礴。",
"rankHard":"8",
"hour":"约6-8小时"
},
{
"day":"12",
"start":"下拉秀镇",
"end":"囊谦县",
"distance":"81KM",
"describe":"行程适中，翻越甲黑丫合垭口和尕日拉垭口，有一定强度，早出发。午餐自备干粮。\n\n沿途在秀美草原和陡峭的峡谷中穿行，邂逅奔腾的澜沧江。",
"rankHard":"7",
"hour":"约5-7小时"
},
{
"day":"13",
"start":"囊谦县",
"end":"甲桑卡乡",
"distance":"113KM",
"describe":"行程较长，翻越多座山口，难度较大，早出发。午餐自备干粮。\n\n沿途风景秀美壮阔。\n甲桑卡乡住宿不便，需扎营或借宿。",
"rankHard":"9",
"hour":"约7-9小时"
},
{
"day":"14",
"start":"甲桑卡乡",
"end":"类乌齐县",
"distance":"101KM",
"describe":"行程较长，长上坡路段翻越吉拉山垭口，难度较大，早出发。午餐自备干粮，沿途可补给。\n\n类乌齐镇名族风情浓郁，可参观游览查杰玛大殿。\n如无法一天完成，可在类乌齐镇停宿。\n类乌齐县是唐蕃古道线和川藏北线交汇处，可在此选择沿川藏北线经那曲前往拉萨。也可选择反骑川藏北线前往昌都，再沿G214到邦达镇，由此转道川藏南线前往拉萨。",
"rankHard":"9",
"hour":"约7-9小时"
}
]