﻿[
{
"day":"1",
"start":"拉萨",
"end":"曲水县",
"distance":"60KM",
"describe":"行程不长，全程平缓路段，难度不大，沿途村镇多，午餐补给方便。\n\n出拉萨后一路沿拉萨河前行。\n赶路或者已经去过羊卓雍错可以直接走国道318分两天前往日喀则，可减少一天行程！",
"rankHard":"4",
"hour":"约3-5小时"
},
{
"day":"2",
"start":"曲水县",
"end":"浪卡子县",
"distance":"93KM",
"describe":"行程较长，达嘎乡过雅江大桥后转到S307，长上坡翻越冈巴拉山，难度较大，午餐自备干粮，途中有补给点。\n\n过垭口后，圣湖羊卓雍错一路陪伴，风景灵秀，洗净风尘。\n\n浪卡子县位于空母错湖畔，县城并不大。",
"rankHard":"7",
"hour":"约6-8小时"
},
{
"day":"3",
"start":"浪卡子县",
"end":"江孜县",
"distance":"103KM",
"describe":"行程较长，上坡路段长，翻越两个山口，难度较大，早出发，午餐自备干粮。\n\n沿途经过卡若拉冰川、乃钦康桑雪山、满拉水库，景色壮丽。\n\n江孜景点众多，可前往白居寺、江孜古堡参观游览",
"rankHard":"9",
"hour":"约8-10小时"
},
{
"day":"4",
"start":"江孜县",
"end":"日喀则",
"distance":"93KM",
"describe":"行程较长，沿S204前行，一路地势平坦，难度不大，可在白朗县午餐。\n\n沿途田园山水风光绚丽秀美，油菜花海，唯美至极。\n\n日喀则是西藏第二大市，物资丰富，住宿条件优越，扎什伦布寺气势恢宏，值得一游。",
"rankHard":"4",
"hour":"约4-6小时"
},
{
"day":"5",
"start":"日喀则",
"end":"拉孜县",
"distance":"150KM",
"describe":"行程长，沿G318前行，翻越措拉山口，全程以平缓起伏路面为主，较为幸苦，早出发，可在柳乡午餐，沿途乡镇较多补给方便。\n\n途经318国道5000公里纪念碑，萨迦县路口距萨迦县约20km，可由路口前往萨迦县游览萨迦寺。\n\n拉孜以藏刀最为出名，不妨选购一把邮寄回家作为纪念（刀具不便携带）。",
"rankHard":"9",
"hour":"约8-10小时"
},
{
"day":"6",
"start":"拉孜县",
"end":"白坝乡",
"distance":"84KM",
"describe":"行程较长，以长上坡+长下坡路段为主，翻越嘉措拉山，难度较大，早出发，午餐自备干粮。\n\n在白坝乡购买珠峰门票，白坝乡有道路通往定日县城。",
"rankHard":"8",
"hour":"约5-7小时"
},
{
"day":"7",
"start":"白坝乡",
"end":"扎西宗乡",
"distance":"64KM",
"describe":"行程不长，以长上坡+长下坡路段为主，翻越加乌拉山垭口，爬坡路段幸苦，午餐自备干粮。\n\n加乌拉山眺望喜马拉雅山脉，多座高海拔山峰一字排开。\n\n到扎西宗乡后，体力好可合并下一天行程，赶到珠峰大本营，强度大，慎重选择。",
"rankHard":"8",
"hour":"约5-7小时"
},
{
"day":"8",
"start":"扎西宗乡",
"end":"珠峰大本营",
"distance":"45KM",
"describe":"行程较短，全程缓上路段，海拔上升近1000m，强度大，午餐自备干粮。\n\n绒布寺距离珠峰大本营数公里，可住宿。",
"rankHard":"8",
"hour":"约4-6小时"
}
]